<svg xmlns="http://www.w3.org/2000/svg" width="652" height="367" viewBox="0 0 652 367">
    <g fill="none" fill-rule="nonzero" stroke="#FFF">
        <path fill="#00D474" d="M160.408 303.02h3.577l1.152-.485 1.637.727h1.031l.728 1.273-.485 1.274-1.88.91.182 1.273h1.091l.303 1.576.667 1.455 1.395 1.395.97.97.425 1.698 1.394 1.394-1.394 1.94-1.334 1.335h-2.244l-2.304.12-1.152-1.151-.788-1.637h-1.092l-1.091 1.091h-1.758l-1.94-1.94-.365-1.152-1.515-1.516v-2.547l-1.274-1.273h-2.304l-1.94.728-.728-1.516-1.94-1.516-1.698-.91-2.304 1.092-2.122.303-1.698-.485-1.213-2.304-1.697-1.516-1.213 2h-1.334v-1.636l1.213-1.213-.789-1.698-1.03-2.607-.425-2.729-1.516-1.819-2.425-.91-.728-1.697-1.334-1.334-2.425.425h-1.395v-1.94l-.727-2.002-2.486-.485-1.274 1.274-2.304.788-2-1.092h-2.123l-1.03 1.516h-4.427l-.485 1.092-1.334 1.334-.182 1.94-2.486-.424-1.455-1.456v-2l.667-1.94-1.091-1.092h-1.698l-.06-2.001-1.214-1.213-.303-1.516h-1.455l-.97-.97-.425-2.061-1.455-.546-.727.727-1.334-1.273 1.819-1.758-.303-2.79-2.365-2.304-2.062.061v-1.213l-1.334-.727-2.243-.303-.607-2.365.122-1.759.727-.727-.788-2.062 1.395-.667.97-.06.97-.97 1.758-.97 2.001-1.213.546-1.031h1.698l.182-3.153-.85-1.516.365-2.668-.364-1.576 2.122-2.244.97.485 1.152-.788.91-.91v-.788h1.152l1.576-1.576 1.213-.303.97-.97-.364-.91v-.97l-1.637-1.334v-1.82l1.152-1.151 1.698-.364 1.213-1.213 2.061-.364 2.244-.727 2.607-.303 1.273-1.274.546-2.122 1.152-1.152 1.395 1.395h2.061l.788-2.062h2.062l2.365.546 3.092-.788 1.152-1.153h1.759l.727 1.698 1.092 1.092h1.88l.666.667 1.577-1.577 2.425-.849 1.03 1.031 1.214-1.273h2.85l.363-4.79 1.213-1.395.667-.667v-1.88l1.394-.727-2.243-2.304 1.091-.97 1.94.848 3.578-3.577 1.092-.91.727.243 1.94 2.304-.363 1.092.91.485.181 1.515-1.213 1.213v2.062l-1.94.424v1.334l-1.334 1.334v1.516l1.092 1.091v1.516l.424 1.577-.606 1.394.727.728 1.152-1.395.728-2.061 1.758-.425 1.88.91 1.152 1.152 1.577-1.516.848.849.486 1.091 1.515-.182.91-.91h1.637l1.516-.605v-1.213l-1.03-1.03.97-1.88 2.06 1.151.728-.727.728.727.97-.97 1.273.485.546.85-.242 1.273 1.091 1.273 1.273-.485 2.183.97 1.455 1.455 1.577-.849 1.819.667 1.03-1.03 1.032.363.727.728 1.03-.364.607-1.273h1.092l2.364 1.576 2.305 1.213 2.546.97 3.517.546v1.576l-2.062 1.092v2.061l-1.152 2.79-2.061 1.819-1.516 2.304-1.334 1.394h-1.758l-1.698 1.455v2.547l1.273 2.062-.667 2.304-1.03 1.03v.728l1.09 1.152-1.273 1.274-1.273 1.03-1.758-.363-1.82 1.212.061.97.789.789-1.092 1.091-.727.728-1.213-1.82h-1.273L177.567 261l-.485 1.88-1.698.849h-1.94l-.606-.607-.667 1.334v1.759l-.789.788-1.333 1.455 1.273 1.82 2.365 1.697h1.455l1.212 1.758 1.274-1.273.424 1.698-.485 1.516-1.213 2.243v1.213l-2.304.545-1.334 1.334-2.122-.788v-1.395l-1.152-1.152-1.637-.848-1.516-.486-2.183 1.638.425 1.94.97.97.303 2.729 1.273 2.061 2.486.243 1.092-.728 2.486.788.727 2.183v1.94h-1.152l-.727-.97-1.698.182v.728l-1.576.546-2.062 2.061v1.152l-1.334 1.82v1.758h-1.091l-1.395 2.486-.243 1.515-1.576.728z"/>
        <path fill="#C3FE2E" d="M56.844 213.948l.485-2.001.607-2.244-1.516-1.516 1.03-.727-.12-1.698.606-2.425 1.091-2.608.788-2.243 2.001-.606.728-1.516 1.94-1.637 1.698-.182 1.334 1.698.606-1.698h1.395l.606-1.092.546-1.212.182-2.123.91-.909.181-1.273 1.577-1.334.606 1.334.91.91h1.758l.91.909 1.515-.122 1.152.728h2.183l1.152 1.152 1.395.182.849-.849h1.697l1.092-1.091h1.334l1.091.545s.546.789.788.789c.243 0 .364 1.455.364 1.455h1.456l.97 1.152h1.334l.242-.849.849.849s1.395.667 1.637.667c.243 0 1.455.667 1.455.667l.91.546 1.152.485 1.637-.304 1.455.486-.545 1.697v2.001l1.273-.242 1.88-.182 1.091 1.091 2.547 1.759.97-.97 1.88 1.88v4.001l2.364 2.365 2.244-.97 2.486-.607 2.243.97 2.062-.97 1.334 2.85 2.607.485 2 2.001.728 1.94 3.7 1.94 1.394 2.002.91-.91 2.243.546 1.212-1.94 2.365 2.061-1.213 1.395-.363 4.79h-2.85l-1.213 1.273-1.03-1.03-2.426.848-1.516 1.455-.667-.667h-1.88l-1.09-1.091-.728-1.698h-1.759l-1.152 1.152-3.092.789-2.365-.546h-2.062l-.788 2.061h-2.061l-1.395-1.394-1.152 1.152-.546 2.122-1.273 1.273-2.607.304-2.244.727-2.061.364-1.213 1.213-1.698.363-1.152 1.153v1.819l.97.667.667.666v.97l.364.91-.97.97-1.213.303-.606.607-.97.97h-1.152v.788l-.91.91-1.152.788-.97-.485-1.152 1.334-.97.97.364 1.577-.364 2.667.849 1.516-.182 3.153h-1.698l-.546 1.031-2 1.213-1.76.97-.97.97-.97.06-1.394.668.788 2.061-.727.728h-2.062l-1.576-.85-.364-1.151-1.455-.303-1.395 1.273h-2.91l-.728 2.425-2.365 2.365h-2.607l-.91.91h-1.394l-.728-.97h-1.758v-1.274l-.788-.788-1.698-.788v-2.123l-1.334-1.515-.303-.304-.607-2.304-1.516-.91-1.637-1.818.607-2.122-.607-3.153-1.94-1.395-2.243-1.698-.728-2.304-1.516-1.213-.485-1.394 1.334-1.516 1.03-2.243v-2.123l-1.09-2-1.092-1.698 1.03-.789.607-1.515h1.213l.91-.789.727-2.728.182-1.637-.788-2.001-1.092-1.092-1.516-.182-1.091-1.212-.91-1.334-1.334 1.152-1.091-1.031-.91-1.516.91-1.637 1.94-1.94 1.334-1.516.485-1.82 1.516-.12 1.092 1.212.606 1.516 2 .728 1.76-.667z"/>
        <path fill="#EA9052" d="M189.209 297.077l3.456-.12 2.304.727h1.698l1.94 1.03 2.001-.424 1.152-1.152h1.092l2.607 1.334h2.728l2.244-.424 1.819 1.03 2.243-.606h2.547l1.213-1.698 2.243.182 2.001 1.213h2.547l.91 1.819h1.818v-1.213l.546-1.152 1.03-1.03v-1.335l.85-.12 1.091-1.092.425-1.092v-1.758l1.455-1.455 1.091-1.092 1.94-.364.728-.727v-1.334l-1.516-.849-.485-1.152-.97-.97-1.334-.667v-1.152l1.577-.728-.667-2.061.12-1.577 1.214-1.213.91-1.515 1.515-1.092 1.576 1.577-.97.97v1.212l1.334.486 1.759.545 1.152.546 1.273.849h1.698l1.091-.97 1.759.91 1.515.484h2.426l2-.97 1.638-1.637.91-1.273 2.85-1.698.302-2.122 2.729-2.001 3.335-.91-.182-3.153 1.213-2.91 1.212-2.365 3.214-.485 2.425 1.03h3.456l.85 1.335 3.213.364 2.547-.97 2.304 2.304 1.94-.486 2.668 1.395.728-2.486 4.001-1.698 3.76 2.729 2.304-2.304 3.638-1.577 1.516-2.486-2.85-1.273-2.547-1.698v-3.092l2.426-2.365.849-.849.12-2.304 1.456-1.455V241.9l-1.516-2.122 1.031-1.94 1.455-1.88 1.334-1.334-.727-1.637.424-2.122-.424-2.426-1.153 1.152-1.152-1.152-2.304-.485-.485-2.122 1.031-1.03-.182-2.305-.91-1.819-1.212-1.213h-1.213l-1.091-2 .91-.728v-1.82l-.728-1.212v-1.03l1.334-1.274-.85-1.758-2.243-1.334v-1.395l-.91-.91.85-1.515-.303-1.82-.97-.97.06-1.637 1.395.304.363-1.213 1.092-1.091.667-1.94-.788-1.517h.727l.546-1.455-.97-2.304v-1.576l-1.577-.304.06-1.94-1.212 1.152-.606-.606-1.213 1.091-.667-.667-.242-1.334-1.94-.303-1.274-1.273-.303-1.092-.91-.91-.12-1.879 1.818-1.394 1.516-1.516.728-1.213h2v-3.517l.182-2.425-2.182-1.213-.607-1.212-.485.485-.606-1.334.546-.546.848-.849 1.94-.303-.181-1.092.97-.97-.364-1.334-1.394-.727-1.334-.364-.728-.728-.424-1.091h-1.031l-.122-1.213-1.152 1.152.122 1.152.424 1.334-1.213 1.092-1.637-1.637-1.03-1.031-2.062 1.576.728 2.244 1.515 1.516v.788l1.82.91 1.152 1.151.666 1.577v1.213l-1.697-1.637-1.577-1.577-1.576.97-1.213-1.03-2.122-1.638v-4.365l1.819-1.82.424-2.607v-2.91l.485-2.122h-1.637l-.727 1.515.727 1.698-.788 2.122-1.213 1.94h-2.122l-2.546 2.547-1.638 1.638 1.456 1.455-.243 2.061.606 1.94.728 2.244-2 2.001-.91 2.607-1.395 2.244.303 3.213-1.213 1.213.304 1.94h1.819l.788 1.092 1.516-.728 1.152-1.152 1.394 1.395 2.486.849.789.788 1.334 1.213 1.03 2-.727 1.638.606 1.94-.606 1.334-1.637.485.182 1.819v1.213l.848.848 2.305.667v1.395l-2.305-.485-2-2v-1.517l-.122-2.425 1.637-1.637-1.212-3.153-.97-.97-.667-1.94-2.305.302h-2.122l-1.334 1.334-1.334 1.334.182 1.94.485 2.123-.606 2.425-1.273 1.274-1.577 1.576-.91.91v2.122l-2 1.091-2.547.728-.606.606h-1.334s-1.455.667-1.092 1.092c.364.424-.363 1.758-.363 1.758h-1.82l-1.212-1.698-1.698.121-2-1.394-1.517-.728-1.516-2.304v-1.94l1.516.485 1.092 1.091 1.697 1.092 1.516-1.031 2.547.485 1.395-.788 1.515-2.244 2.608-2.607 2.243-.606.425-3.76 2.243-1.697.303-1.638-1.758-1.758-.728-2.668.788-1.94 1.092-3.82.728-4.366 2-3.031.486-2.729.606-3.456-1.698-1.516.788-2.607 2.91-2.91.486-3.7 1.03-1.03-.909-3.456h-2.122l-1.213-1.213h-2.425l-1.213-1.698-1.94 1.031-1.092 2.425-1.03 2.426-1.334 2.91-1.698 1.698-.728.728-2.182 1.09-2.001.729-1.092 1.394-.727 2.001 1.334.425v1.515l-.91 1.213-.485 2.425v1.638l-2.001 1.03-.97.97 1.091 2.183 1.94 1.334-.424 2.85 1.092 2.607 1.637.485-2.304 2.123v2.122l-2.001 1.213-1.395-2.244v-2l-1.698-2.305-1.637-2.547-2.365-2.364-.788-1.637-.849 1.212-1.576 1.577.97.91.182.727.727.242v3.457h-.97l-.485 1.09-.788.425-.121 1.092-.182.727 2 1.031v1.334l-1.879.728 1.577 1.576-2.426 1.213-1.819 1.819h-1.94l-.728 2.243h-3.456l-3.214.728-3.213 1.82v2.243l-2.668-.122-1.94.303-1.092 1.213-1.88.97-1.88 1.88-1.757.242v-1.576l-1.274-.485-1.758 1.698-2.062 2.061-.91 1.759.365 2.182-2.426 1.516-.242 1.82-2.062 1.273-1.334 2.546.364 1.759-.849 1.576v1.334l-2.486 2.486-.364 1.759-.97.97-.546 1.455v1.576l-2.061 1.092v2.061l-1.152 2.79-2.062 1.819-1.516 2.304-1.334 1.394h-1.758l-1.698 1.456v2.546l1.274 2.062-.667 2.304-1.031 1.03v.728l1.091 1.152-1.273 1.274-1.273 1.03-1.759-.363-1.819 1.212.06.97.789.789-1.091 1.091-.728.728-1.213-1.82h-1.212l-1.092 1.76-.485 1.879-1.698.849h-1.94l-.606-.607-.667 1.334v1.759l-.789.788-1.333 1.455 1.273 1.82 2.365 1.697h1.455l1.212 1.758 1.274-1.273.424 1.698-.485 1.516-1.213 2.243v1.213l-2.304.545-1.334 1.334-2.122-.788v-1.394l-1.152-1.152-1.637-.85-1.516-.484-2.183 1.637.425 1.94.97.97.303 2.729 1.273 2.061 2.486.243 1.092-.728 2.486.788.727 2.183v1.94h-1.152l-.727-.97-1.698.182v.728l-1.576.546-2.062 2.061v1.152l-1.334 1.82v1.758h-1.091l-1.395 2.486-.243 1.516-1.576.727-.606 1.092h3.577l1.152-.485 1.637.727h1.031l.728 1.273-.485 1.274-1.88.91.182 1.273h1.091l.303 1.576.789-2.122 2 .485 1.698-.485.728-1.82-.728-2.546 1.698-.727 2.607-.122 1.698 1.698h1.395l1.273-1.273-1.334-1.334-1.091-1.092-1.092-.727 1.395-1.395-.728-1.516.728-2.243h2.122l2.304 1.213 1.637 1.394 1.82-.485 2.546.606zm99.5-140.61l-1.03 1.03-1.091.91 1.03.727.85-.727h1.273l1.212-1.092-1.091-1.091-1.152.242zm-3.273-10.187l-.85.727.546.85 1.092-.728 1.394.364-.363-.85-1.82-.363zm-4.245 3.699l-.485 1.212.728.667.849-1.03-1.092-.85zm-9.823-5.943l-1.03.728.363.849-.727 1.03.182.668 1.637.485 1.576-.728.91.121v-.91l-1.455-.363.727-.849-.849-1.213-1.03.364-.304-.182z"/>
        <path fill="#74D8B6" d="M331.336 75.095l-.243 1.516-1.334.606-2.061 1.334v1.88l.849.849-1.092 1.091-.727 1.395.97 1.334.364 1.334 1.758 1.516 1.576-1.516h1.092l1.576-.91 1.88-.606-.546-1.82v-2.303l1.152-.97-.97-.97-1.94-1.94-.667-1.517-1.637-.303zm-5.7.91l-1.576.06-.667.667.545.546.546.546 1.152-1.092v-.727zm-18.918 1.576l-.727.121-.485.486.727.727 1.031-.364.606-.606-1.152-.364zm30.5 8.186l-2.002.667-1.455.364c-.242.06-1.637.545-1.637.545l-.667 1.395-.364 1.213-.849 1.03.304 1.213-1.577 1.213.728.667 1.091-.364.91 1.273.12 1.213.85 1.03 2.122.183.303 1.212 1.455-.91.728 1.213 2 .728 1.941-.91.91-1.273-.728-1.455-1.213-1.637.91-.667.364-1.577-.485-1.758.182-1.758-2.183-1.213-.85 1.03-.727 1.395-.667-.303.485-1.758v-2.001zm-11.642 1.758l.242 1.698v1.091l1.698.485.667.667 1.03-1.03.546-1.456-.97-.727-1.88-.485-1.333-.243zm-26.558 1.94l-.546.546.667.364 1.03.728.304-.91-1.455-.728zm47.658 2.729l-.91.121-1.273 1.577.122 1.394-.546.91.364 2.486-1.092 1.091.122 2.486-.546 2.123-.485 2.122.849.485 1.758-1.395 1.031-.667 2.304-1.212 1.82-.182 2.303-1.759 1.092-2.122-.728-1.819-.849-1.395-1.091.486-1.092-1.94-.849-.85-1.03 1.213-.667 1.758v-1.273l.12-2.304-.727-1.334zm9.52 9.338l-.91.545 1.274.667.91.667 1.03-.303-.303-1.212-1.031.303-.97-.667zm-3.153 6.063l-1.637 1.698-1.82 1.334-1.515 3.76-.485 1.636v2.426l.788.606.182 1.698h-.728l-2.304.727h-2.243l.606 1.092 1.213.91.91 1.212-2.002-.424-2 .424-.304 1.637-3.153-.121-1.273 1.273v-1.455l.97-1.819-1.819.303-.485 1.092-2.243.303-2.608.606-1.03 1.03 1.819.607-.607.728-2.728.788-.97.97-3.76.546-1.091 1.091-2.79 1.092-1.09 2.304-2.85-.121.12 1.515 1.395.122-1.394 1.091-1.031 1.395.849.849-.546 1.273.788.91-1.212.303s0-1.516-.728-.728l-1.152 1.152 1.03 1.03 1.213.425 1.031 1.516-1.03 1.03h-1.94l-2.608 1.092h-3.941v.607l-2.426-.91h-4.73l-2 1.82.485 2.546.788.788-.91 2.001-.606 2.425.788.789 1.395 2.304 1.94.727-.12 1.395 1.09 1.516-.424 1.637h-2.728l-1.759-1.758-.667-.667.728-2.001-2.608-1.395-1.333-1.334-1.698.243-2.001-.425.121 1.213h.97l.425 1.091.849.85 1.273.242 1.394.727.364 1.334-.97.97.182 1.092-1.94.303-1.395 1.395.607 1.334.424-.546.667 1.273 2.183 1.213-.182 2.425v3.517h-2.001l-.728 1.213-1.516 1.516-1.819 1.394.122 1.88.91.91.302 1.09 1.274 1.274 1.94.303.243 1.334.667.667 1.212-1.091s.425.788.607.606c.181-.182 1.212-1.152 1.212-1.152l-.06 1.94 1.576.303v1.577l.97 2.304-.545 1.455h-.728l.788 1.516-.667 1.94-1.091 1.092-.364 1.213-1.395-.304-.242 1.456.97.97.303 1.819-.849 1.516.91.91v1.394l2.243 1.334.85 1.758-1.395 1.273v1.031l.727 1.213v1.819l-.91.728 1.092 2h1.213l1.212 1.213.91 1.82.182 2.303-1.03 1.031.484 2.122 2.304.485 1.152 1.152 1.152-1.152.425 2.426-.425 2.122.728 1.637-1.334 1.334-1.455 1.88-1.031 1.94 1.516 2.122v2.547l-1.455 1.455-.122 2.304-.849.849-2.364 2.365.06 3.092 2.547 1.698 2.85 1.273-1.516 2.486-3.638 1.577-2.304 2.304-3.76-2.729-4.001 1.698-.728 2.486-2.668-1.395-1.94.486-2.304-2.305-2.547.97-3.214-.363-.848-1.334h-3.457l-2.425-1.031-3.214.485-2.364 5.275.182 3.153-3.335.91-2.729 2-.303 2.123-2.85 1.698-.91 1.273-1.636 1.637-2.001.97h-2.426l-1.576-.545-1.759-.91-.667.97h-2.061l-1.274-.849-1.152-.545-1.758-.546-1.334-.485v-1.213l.97-.97-1.576-1.577-1.516 1.092-.728 1.152-1.394 1.576-.122 1.577.667 2.062-1.576.727v1.152l1.334.667.97.97.485 1.152 1.516.85v1.333l-.728.728-1.94.364-2.547 2.546v1.759l-.424 1.091-1.092 1.091-.848.122v1.334l-1.031 1.03-.546 1.153v1.212l1.516.728.788 2.546-.485 1.395v1.94l-1.273 1.274.546 1.758 2.243.606 2-1.212 1.456 1.455-.667 2.365 2.001.606 1.092-1.091 1.819 1.091h2v1.395l-2.425 1.091-.606 2.729h1.698l2.122-1.031 1.091 1.637 2.426-1.334 2.85-.788 1.697-1.698 1.577-.06 2.122-.122 1.516-1.516h1.819l.485 1.395-1.213 1.637h-1.395v1.819l1.698.728 1.274 1.273 1.152 2.486 1.091 1.091 1.698 1.698 1.212 4.063v3.334l1.638 1.516v2.426l1.697 3.031.485 2.608.728 2.304 1.334 2.607 2.243-.424 1.092-2.304 1.637-.486 1.091 1.334v1.516l1.092 1.092 1.213 1.212 2.243-.424 1.03 1.03 2.547-.424 1.274-1.273h2.546l1.213 1.213 1.88.849 1.394 1.333.425 2.426 1.698 1.091.788 1.82 2.122 1.333v2.426l2.729.727 2.425.788 2.607-1.03 1.577-1.577.545 2.062 1.092 2 .91 1.517 2.91.485 1.334-1.334 2.546-1.395 3.032.121 1.698-1.697 2.365-.546.424-2.122h2.001l2-2.001 3.336-2.122h2.607l.728-2.123h2.243l1.759-1.758 2.182.97 1.698 1.698 2.729-1.092 2.304.728 1.94 1.94 1.637 1.638 2.91 1.03 2.002.607 2.85-.485 2.728.727h4.85l2.305-2.304 2.365-1.576v-2.426l-1.759-1.758v-2.244l-1.273-1.516.424-2.607 1.334-1.334 1.274-2.546 1.576-1.577.06-.06-.12-1.88-.97-.97-.365-1.698 1.092-1.092v-1.758l1.152-1.152 2.668-2.668.727-.727.91-.91 1.395.849-.304 1.334 1.88.91 1.152 1.09 2.486.728 1.152 1.152 1.273.667 1.456 1.456 3.274-.667 1.213 1.273 1.515 1.273h1.577v1.456l1.152 1.819h2.91l.546 1.819 2.304-1.274h1.698v-2.97l2.365-2.366 2.728-3.274 1.334-3.517 3.578-3.577 4.062-4.911.607-7.216 1.455-4.79-2.183-.667-1.152-5.457-.97-4.487.727-1.455 1.092-1.092-1.759-1.212-1.697-.546-.607-2.729 3.153-2.364h1.577v-2.062l1.516-.667 2.182.728 2.305-.85v-1.94l1.576-1.151.849.909h2.547l1.515-1.091.97.97 3.154.667 1.273-1.274 1.334.728 2-2h1.577v-4.003l1.82-.91 1.151-2.364 1.88.485.91.91-2.183 2.061 1.819.121 1.516-.848 2.304.606.91-1.759 1.576-.97.363-1.94-.727-.728v-1.273l-1.637.667-2.91-2.91.788-2.062-.91-.91.728-1.758-.728-.727 1.758-1.759 1.638.121.97.97h1.273l1.213-.909.364-1.091-2.85-2.85-.85-2.244-1.272-.12v-1.456l-1.334-1.455-1.092-1.092h-1.516v1.577l-1.394 1.394-2.183-.303v-1.273l-.97-.85v-1.818l-1.94-.243-2.244-1.091-2.122.242-2.122-.303-1.213 1.456-.606 2-1.395 1.395.546 1.94-.728 2.244-1.88 1.88v3.516l-2.668 1.82v2.06l-1.152-1.576v-1.758L421.438 261l-1.273.546-.303 1.637-3.335 1.273h-1.576l-.607 1.88-1.03 1.516-2.183.182-2.426-2.426-.242-5.032.303-3.032v-2.85l.364-2.547v-2.486l-1.759-.727-1.273-.425-.182-1.212-.606-1.395-1.152-1.152v-1.213l.788-.788.242-1.88-1.091-1.091h-1.455l-1.577-.728v-1.455l.607-.606-.667-.667-.546-2.183-1.273-2.243-1.516-1.092-1.698.485-1.637.121v-1.94l1.334-.364v-1.273l-1.395-1.395-.06-1.212-1.456-.122-1.091 1.092-1.395-.606-1.819.667-.91-1.092h-.97l-.848.849h-1.637l-1.092-.485v-2.001l.607-.606v-1.334l-.485-1.516 1.212-1.88.667-1.94-2.061-2.062-.546-2.789-1.758-.97v-1.758l.667-.607-.667-.667v-1.637l-1.88-.727-.546.545-.546-1.698.97-.97 1.031-1.637 1.516-.424-.545-3.941-.425-2.547v-1.334l-1.758-3.214-.182-3.335-1.759-1.212-.727-1.759-.546-1.334v-.849l2.122-.848 2.183-3.093 1.516-.485 2.062.607.606-1.334v-1.698l-1.152-1.152.546-1.94 1.515-.546v-1.577l-.06-2.061 1.698-1.152 1.94-1.94.424-1.395h.85l-.122-2.062h-1.577l-1.455-2.728v-2.486l-1.273-1.274-2.729-1.94v-1.091l-2.061-.728-.728-1.516.364-2.061-.849-.85-.91-1.333-.485-1.152.667-.728.182-.97-.788-.667-.242-1.758h-1.213l-1.516.12.121 1.638-.121.788 1.213.121.727.728-.97 1.88-1.637.606-1.698 1.395s-.303 1.819-1.212 1.819c-.91 0-2.547.485-2.547.485l-1.82 1.091.425 2.001-1.819.788.485-1.819.425-2.607 1.698-1.698.727-2.304 2.426-.606.606-3.153 1.516-1.516.606-2.85v-1.03l2.001-2.426 1.152-1.152.97-1.94 1.031-1.395v-2l1.152-1.153-1.273-2.183-2.001-1.091-.788-.788 2 .424.182-2.122-1.334-1.334-1.09-1.092-.729.789-1.212-1.031-1.031-2.001-1.152-1.152-1.577.728-1.152-1.152-2.061 1.455h-2.001l-2.244 1.212.91.91-.485 1.698s-1.637-.728-2.244-.728c-.606 0-.485-1.334-.485-1.334l1.334-1.334-1.455-1.455h-1.94l-.607.606-3.213-.182 1.334-1.697 1.576-1.577-.485-2.061-1.516.181-2.425-1.273zm7.094 2.122l-.364.546.85.546.363-.667-.849-.425zm-38.139 5.215l-.485.728.667.545.849-1.212-1.03-.061zm15.34.364l-.909 1.091-1.213.303 1.092.85 1.091-1.092-.06-1.152zm-30.741 11.156l-.485.486.667.545 1.091-.303-1.273-.728zm-1.94 5.336l-1.031.85.546 1.09.91-.181-.425-1.759zm7.882 8.307l-1.091.546s.485 1.394.485 1.213c0-.182.849-.364.849-.364l-.243-1.395zm-8.246 3.76l-.182 1.03h1.577l.848.85.122-1.395-.91-.182-1.455-.304zm-10.065 9.216l-.85.303-.666.849.364 1.091.667.85.91-1.032.363-1.212-.788-.85z"/>
        <path fill="#F7D759" d="M576.117 1.121c-.061 0-.122 0-.182.122-.607.606-2.304 1.091-2.304 1.091l-1.82 2.547h-.727l-2.425.91-1.395 1.394-1.03 1.394-.183 1.82-1.091-.122v.91l1.637.424-1.94 1.334-.607 1.819 1.82.485 2.85.182 2.425-.485v1.213l-2.426 1.334-1.334 1.333-2.061-1.576-2.304.728-1.638-1.638-1.394.789-2.244 1.03-1.819 1.94-3.456 1.032-1.819 2.607-2.546 1.03-2.062 2.062-2.001 2.001-2.183 1.273-3.032 1.334-1.576 1.577-3.456 3.456-3.093 2.971-.788 2.91-1.698 2.547-.606 1.82.606 1.697h-1.394l-1.637.91-.182 2.122-1.82.91-.484 1.94v1.091h2l.607 1.395 2.547-.425 3.456 1.516 1.091.182.607 1.637-.485 1.637-2.001.485-2.244 1.031-1.637.606h-2.304l-1.516-1.516 1.455-1.455-1.94-1.94-1.091 1.091-1.092 2.001 1.395 2.001-.425 1.213 1.031 1.03-.606 2.426-2.547 1.82v2l-1.334 1.334h-1.516l-.91 1.698v3.335l-1.94 1.94v1.395l.97.97h-1.94l-1.819 1.455-2.546 1.091-2.85-2.85-1.334-1.333-2.79.12-3.334.486-1.94 2.304-2.123 2.122-2.546 3.76v2.91l-2.001 2.547-1.94 1.94-2.123.121-1.94-1.03-2.729 1.515s.607 2.608.304 2.304c-.304-.303-1.94-2-1.94-2l-1.395 1.637h-2.244s-1.334-.485-.727-1.092c.667-.667 1.515-1.819 1.515-1.819l-1.819-1.334-3.031 1.334-2.123 1.03-.909 2.548-.424 1.394.606 3.214v1.94l-1.698 1.637.485-3.941-1.94-.606-1.516 1.515-1.698.789.728-2.729s1.94-.727 1.94-1.334c0-.606-.424-1.03-.424-1.03l-2.91 1.333-3.76 1.395-.788 2.304-2.85 1.395h-1.94l-1.334 1.334 2.122 1.334.303 1.394-2.243 2.001v2.122l1.212.789 1.031-2.608.728.607v2.243l1.697.91 1.516 1.515.728.425L456 121.42l-1.94-.121-1.092 1.212-.849.85 2.365 1.09v1.516l-2.243-.606-1.94.121-2.608.607-1.394 2.607.485 2.607h-2.547l-2.244.607-1.394-1.395-2.547-.303v1.819l1.334 1.334v1.394l.607 1.516 1.03 3.335-.182 1.94-2.304-1.212-.91.91-2.121-.425-1.516-1.031-1.94-1.94-2.062.06v-1.637s-.91-1.394-.91-.91c0 .486-1.091 1.031-1.091 1.031l-1.395-1.394.789-.788 1.334-.425v-2.243l-1.031-1.031-1.94 1.213v-1.94l-1.153-1.153h-1.152l.789-2.486-2.426-.788-.727.728-2.244-1.698s-.182.97-.97.97-.667 1.88-.667 1.88l-.788.606-.788-.91-.789.182-.424 1.213-1.637-1.091-1.092-1.092-1.273.97-1.213-1.212-.303 1.212-.424 2.305 1.516 2.304.303 2s.485 1.82 0 1.82-2.729.424-2.729.424l-2.122 1.819-2.122.788-1.213-1.94-.303 1.091-.121.789h-3.153l-1.698-1.698.728-.728-.789-1.152-3.031.91-3.82.727-2.547 1.334-1.88 1.88-.97.97 1.395 1.334h-1.395l-1.213-1.698v-2l-1.091-1.092-1.273 1.758-.425 1.213-2-.788-1.698-.425.242 1.759.788.667-.182.97-.667.727.486 1.153.91 1.334.848.848-.364 2.062.728 1.516 2.061.727v1.092l2.729 1.94 1.273 1.273v2.486l1.455 2.729h1.577l.121 2.062h-.849l-.424 1.394-1.94 1.94-1.698 1.153.06 3.638-1.515.545-.546 1.94 1.152 1.153v1.697l-.606 1.334-2.062-.606-1.516.485-2.183 3.092-2.122.85v.848l.546 1.334.727 1.759 1.759 1.212.182 3.335 1.758 3.214v1.334l.425 2.546.545 3.942-1.516.424-1.03 1.637-.97.97.545 1.698.546-.546 1.88.728v1.637l.667.667-.667.606v1.759l1.758.97.546 2.79 2.061 2.06-.667 1.941-1.212 1.88.485 1.516v1.333l-.607.607v2l1.092.486h1.637l.849-.85h.97l.91 1.092 1.818-.667 1.395.607 1.091-1.092 1.456.122.06 1.212 1.395 1.395v1.273l-1.334.364v1.94l1.637-.121 1.698-.485 1.516 1.091 1.273 2.244.546 2.183.667.667-.607.606v1.455l1.577.728h1.455l1.091 1.091-.242 1.88-.788.788v1.334l1.152 1.152.606 1.395.182 1.212 1.273.425 1.759.727v2.486l-.364 2.547v2.85l-.303 3.032.242 5.032 2.426 2.426 2.182-.182 1.031-1.516.607-1.88h1.576l3.335-1.273.303-1.637 1.273-.546 1.334 1.334v1.758l1.152 1.577v-2.062l2.668-1.819v-3.516l1.88-1.88.728-2.244-.546-1.94 1.395-1.394.606-2.001 1.213-1.456 2.122.304 2.122-.243 2.243 1.091 1.94.243v1.819l.97.849v1.455l2.184.303 1.394-1.394v-1.395h1.637l1.092 1.092 1.334 1.455v1.455l1.273.121.849 2.244 1.334 1.334 1.576 1.576-.363 1.092-1.213.91h-1.273l-.97-.971-1.638-.121-1.758 1.758.728.728-.728 1.758.91.91-.789 2.061 2.91 2.91 1.638-.666v1.273l.727.728-.363 1.94-1.577.97-.91 1.758-2.303-.606-1.516.849-1.82-.121 2.183-2.062-.91-.91-1.212-.424-1.152 2.365-1.819.91v4.001h-1.576l-2.001 2.001-1.334-.788-1.274 1.273-3.153-.667-.97-.97-1.516 1.092h-2.546l-.849-.91-1.577 1.152v1.94l-2.304.85-2.182-.728-1.516.667v2.061h-1.577l-3.153 2.365.607 2.728 1.697.546 1.759 1.213-1.092 1.091-.727 1.456.97 4.486 1.152 5.458 2.183.667-1.456 4.79-.606 7.215-4.062 4.912-3.578 3.577-1.334 3.517-2.728 3.274-2.365 2.365v2.97h-1.758l-2.305 1.274-.545-1.819h-2.911l-1.152-1.819v-1.455h-1.576l-1.516-1.273-1.213-1.274-3.274.667-1.455-1.455-1.274-.667-1.152-1.152-2.486-.728-1.152-1.091-1.88-.91.304-1.334-1.395-.848-.91.91-.727.727-2.668 2.668-1.152 1.152v1.758l-1.091 1.091.364 1.698.97.97.12 1.88 1.153-1.152 2.304 1.698h3.941l1.94 1.94 2.911-.728h2.547l2.607 1.031 1.88 1.88 1.455 3.092 1.576 1.577 2.486 1.091 3.638.303 2.547-.727 2.607-.607 2.365-2.364h2.91l4.67-.667 1.394.91 3.517.484h3.82l1.394 1.395.789 1.516 2.728.91 3.032-.425h4.123l2.91-.91h3.214l1.273-1.273 2.486-2.486 3.214-1.516 2.304-1.637 1.758-1.758.85-2.972 3.637-3.638 2.547-1.091 1.94.728 2.123 1.091 2.85-1.637 2-1.213 2.729.485 3.76.303 3.334-1.212 1.94-1.94 1.334-3.154 2.123-.606v-2.85l-.91-.91-1.516-2.91 1.092-2.85v-2.728l.606-4.366.788-1.697-.788-3.214-1.395-1.395-1.273-1.273-1.576 1.273-1.092-1.394.788-2.001 1.092-3.335 1.576-1.577 3.153-1.88 1.577-1.576 3.456-2.546h2.547l2.304-.789 3.031.485 2.426-1.334h2.122l4.062.425 1.213 1.213 2.001.91.788 2.121 2.244.607 1.637 1.637 2.304 1.819 1.03 2.425 2.426.425s1.94 1.516 1.94 1.94c0 .424 1.698 1.395 1.698 1.395l1.455 1.455 1.274 2.486 3.031.606 3.032-1.091 1.092-1.092h2.728l2.91-.424 1.94.485 2.305.606 1.152-1.152 2.183.546 1.334 1.334 1.637 1.394v2.305l1.395.485 1.94 1.091h1.94l.485-1.819 1.82-.606 2.121-1.213 2.123-1.698-.789-2.546 1.82-2.305 1.637-2.607.606-2 2.425-1.335h1.698l.424 1.334 1.456 1.455 1.273 1.274v2.243l-1.516 1.516 2.001 2.122.485 2.244 1.092 1.94-.425 1.637 1.395 1.94.182 2.305 1.03 2.243-.788 2.122 1.637 2.547-.91 1.819-1.454 1.455-1.698-.545-1.637.788-1.395 1.394v2.001l-1.091 1.092-1.274 1.273.061 1.94 1.819.607 1.94 1.94.91 2.304 1.091 1.091 2.183 2.183 1.092 2.365v2.001l-1.213 2.425-.728 2.304.788.789 1.94.121v-2.667l.85-.85.545-1.94-.424-1.698.424-2.547v-1.03l1.334 1.334.85.849v-1.88l.787-1.698.728.728v1.334l1.455.606 2.122-1.213 2.547-1.03h1.334l1.516-2.85 1.334-2.85 2-3.335v-2.304l.183-4.85-.607-3.76.607-3.638v-8.792l.606-2.001v-3.82l-.606-3.941-.607-2.91-.788-3.214-1.091-2.91.121-3.76-1.091-3.638.606-3.638v-4.245l-1.577-1.576-1.88-2.91-.484-1.395-1.395-2.426-2-2-.486-1.698-1.03-1.031-2.547-2.547-2.062-2.97-1.334-4.063-.303-3.82-1.03-1.94-.971-.97-1.88.242-1.516-1.516-.424-1.334h-3.517l.607-1.091.727-.728.97-.97-1.273-1.273s-1.395.606-1.94.606c-.546 0-2.85.424-2.85.424l-.97-.97-2.183-.242h-2.607l-2.244.485-1.091 1.091-1.82 1.03 1.092 2.002.91 1.698.97.97-.243 1.698-1.091-.789-.728.607-1.091 1.515v1.031l-2.001.788v-3.153l-.606-.606-.607.182-1.212-.91v-1.03l-1.092 1.212v1.516l1.395.607v1.637l-1.092 1.091-1.212-1.212-.97-1.759v-1.334l-1.213-.606-1.031-1.031-1.455 1.455-1.334 1.334h-1.637l-1.213 1.213h-1.516l-.91-2.062.789-2.243v-2.607l1.516-2.547v-2.85l.91-3.456v-5.093l-1.032-1.092v-3.456l.607-2.547V213.1l1.212-2.001-1.394-1.395-.91-2.304.485-3.213 1.516-1.516-1.637-3.214.303-3.335 1.698-3.456 1.698-1.698 1.637-2.728 1.455-1.455 2.304-2.244h2.304l1.698-1.091-.606-.607-.788-1.334 1.212-1.091h1.213l1.395-1.334 1.576-1.576-.667-2.183 2.122.788 1.334-1.395-1.091-1.091-.485-1.94.485-1.516 1.334-1.334 1.637-.425 1.395-1.697 2.85-1.334v-.91l1.94-.303 1.819-.728.727.728-1.698.546-.424 1.334v1.334s1.334.485.91.91c-.425.424 1.94-.122 1.94-.122l.727-1.94v-2.123l1.94-.788.304-1.516-.728-3.517 3.032-.485v-2.789l1.637-.485.121-1.94h-1.515l-.85.849-1.151 1.091-1.334.182-1.395-1.395v-1.819l-1.698-1.697-.545-4.002v-3.032l-1.82-2.85.304-2.85-1.82-1.212-.12-4.427 1.09-1.334.91-3.334v-1.638h2.729l.788-2.425-.788-2.243 2.85 2.607.788 1.698 1.03 1.03 1.517 1.516v-2.546l1.819.91.788 2 .728-2.304-.182-3.82-1.031-2.425v-3.214l-1.273-1.273.97-1.334.91.121.181-1.334h-2l-1.699-1.698-1.758-1.758-1.213-1.091.607-1.638v-2.122l2.243-1.213 1.577-1.576.667.667-1.94 1.819v2.304l2.122 1.334 1.394 1.82 1.152 1.151 1.273.485h1.334l1.334 2.547 1.213 1.213v3.092l-.728 2.425.122 2.001 1.212 1.031 1.213 3.76 1.03 2.546.91 3.153.789 3.335 1.94 2.546 1.213 3.76.485 3.213 1.03 3.032-.727.728-.91.91.97 1.636-.727 1.516-.849.85v.848l1.88.424 1.697 2.426.304 2.304 1.394 1.395v2.122l2.001 2.122 2.91 2.91s.85 1.94 1.335 2.426l2.728 1.819 2.85 1.516 4.366 1.334 2 .424 1.82 1.213 1.091 1.516 3.82 2 3.335 1.395 3.517 1.637 1.819 1.82h2l1.456 1.454 1.88.97h2.91l1.091 1.516v-2l-.485-2.729-1.03-4.244-.425-3.214-1.94-1.819-2.608-2.607-1.697-.728-1.031-3.638.788-1.819v-1.819l2.244-.303v-1.213l-2.91-.728-.85-.848-1.758-.667-2.001-3.153-.728-4.063 1.031-2.243 1.698-1.092 1.213-.788-.728-1.819-2.001-1.637-3.456.424-1.455-1.455-1.88-.485-2.122-3.517-.607-2.425 2.001-.607.789-1.94-1.94-1.94h-1.698l-1.031 1.03-2.607-.606-2.608-1.819-.485-2.304-2.607-2.607-.728 1.516-.97.97v.849l.728 1.698h-2.85l-1.698-1.698-2.789-1.455-.303-2.244-.425-2.85-1.94-1.94-1.395-1.395-1.212-1.212-1.516-2.547 1.091-1.091v-2.608h1.213l1.88-1.88-1.88-.848v-1.759l-1.091-2.91 1.212-.121 1.395 1.394 1.94.91v-1.637l-1.698-2.608v-1.515l.789-2.85-1.092-1.092 2.122-3.031 1.334-3.032 2.547-.788 1.82.91 1.697-1.517-1.092-1.091-1.697-1.94-1.031-4.063v-2.91l-1.94-1.698-1.031-3.153-.485-3.214-1.031-2.425-.606-2.85v-3.638l-.728-3.214-1.698-2.607.728-.727-2.365-1.577.606-.91h2.123l1.334-2.85 2-.788v-2.122l-1.455-1.455-.727-1.758-1.637 1.212-1.092-.91-1.334.183-1.091 1.091h-1.759l-.485.97h-1.819v-1.516l-2.243.122-1.213.182-1.516-.122-.606 1.031-1.273 1.273-2.183.061-1.213.91v1.94l-1.334.485-1.03-1.03 1.636-1.941h-1.09l-1.699.727.728-1.637 2.122-.91h1.516l1.637-2.606-.424-2.305-.789-2.91-1.697-1.698-1.577-1.576-.91.91-.12-1.941h-1.516l-2.244.606-1.334-1.334v-1.334l-1.758-.303.606-.606.91-.425-.728-.727.121-.97 1.031.606 1.091.91h1.94l1.335-1.031 1.334 1.03 1.697-1.697V28.83l-.727-1.516 1.698-2.546h1.94l1.516.606 2.122-.728 1.091-2.425 2.123-2.304 2.304-.182.91-2.607-1.699-.485v-.789h2.123l-.728-1.637v-1.334l-1.091 1.395-1.092.303-1.334-2-1.88-1.88v1.09l-2.364-.909-1.092 1.092-1.819-.303 2.304-1.516V8.034s.607-1.82 0-1.213c-.606.606-2.122.606-2.122.606l1.092-2.304-1.031-1.03L575.57 3c.424-.06.849-1.88.546-1.88zm-52.57 16.129l-.728.728-1.516.788-1.273 1.273.121 2.183-.546.546.243 1.758 1.03 1.455 1.032 2.426 1.576.364 1.091-1.092.85-1.516-.91-.97 1.334-1.94-.243-2.122v-2.547l-1.334-1.03-.727-.304zm-84.343 50.812l-.545 1.03.606.607.667-.607-.728-1.03zm14.613 7.7l-2 .91-1.032 1.212-1.152 1.152h-.485l-.849-1.03-1.394 1.394-.97.97-.667.667-1.395-.667.182.728.485.667 1.03 1.455 2.002.667 1.213-1.213h1.637l1.637-.667 1.516-.667.97-.97v-1.273l.849-2.304-1.577-1.03zm-12.005 6.973l-1.213.364h-2.91l-.97.97-1.517 1.03-1.091-1.09-2.668.848.182 1.637.667.667 1.03 1.031.668.667-1.031.849-1.395-1.213-.727.728-1.031-1.03-2.304.484-1.03-.545-.486 1.212.728.728-1.395.727v1.759l1.091 1.091-.303 1.274h1.031l1.273 1.273-.363 1.455 1.637.849 2.183.121.91.91h1.636l1.94-.546V97.53l-1.212-1.092.667-.667.97.97 1.698-3.092 1.576-1.576.667.667 1.455-1.455.485-1.395-1.637-.546-1.091 1.092-1.395-1.031-1.637-1.03-1.637-1.214.546-1.212.849-.85.667 2.366 1.03 1.03 1.759.304 1.091-.486h.91l.91-.91-.486-1.94h-1.455l.364-1.637v-1.09h.364zm-18.797 13.34l.97.97.606 2.183h1.213v-1.213l-.485-1.03-.849-.85-1.455-.06zm25.103 2.728l-1.153 1.031-1.03 1.03-1.031 1.032.606 1.394 1.031 1.03-.667 1.456.546.546.849-1.759 2.122-.485 1.819-.727 2.486-1.455-1.273-2.365h-1.759l-2.546-.728zm-4.851.364l-1.092.121-.849.728.667 1.819 1.031 1.03.85-1.697v-1.334l-.607-.667zm-10.914 8.61l-.546.485 1.03.485 1.274 1.031.546-.728-.546-.849-1.758-.424zm167.35 9.702l-1.03.606v1.94l-.182 1.759 1.03.727.728.85.06 1.576 1.395.545-.364-1.576-.606-1.213.606-2v-2.426l-1.637-.788zm41.535 4.972l-1.152.242-1.152.788.606.607.849-.85.849-.787zm-5.336 4.729l-1.637.728-1.577-.607-1.212.425.606 1.334h4.244l1.334-1.334-1.758-.546zm-255.452 5.275l-1.031.182-1.698 1.698v1.152h1.395l.485 1.091 1.212-.545 1.395-1.395v-2.183h-1.758zm258.241 59.3l-.545 1.577-.85.849.97.97.547 1.152-.182 1.577-.061 2 .91.91 1.03-.546v-2.122l.91-.91-.728-1.818-1.213-1.213.061-1.577-.849-.848zm3.76 13.583v1.334l.848.424.607-.788-1.455-.97zm-75.308 19.766v1.334l.545 1.516.728-.182 1.698.607 1.152 1.152v.667l1.152 1.152-.364 1.758-2-.606v1.334l-.607 1.758 2.425.788 1.213 2.244 2.243 2.304v1.334l2.123 2.91 1.576.182 2.607 1.152 3.335 1.516 1.213 2.001 1.94 2.607 2.183 2.183 2.607 2.608 3.214 4.487 1.516 3.152 1.758.546 1.82 1.031 1.758 1.637 1.394 2.729 1.152 1.516 1.637 1.637 1.759 1.758v1.637l2.607 2.426 1.516 1.515 1.152 1.395 1.395-1.152-1.031-2.304-1.395-1.395-.424-1.758.727-1.82h2.244l1.03-1.03s2.365 1.152 2.79 1.152c.424 0 0-1.03 0-1.03l-1.213-1.577-2.061-1.152-1.153 1.152-1.94-.06-.788-1.638h-1.516l-1.334-1.334h-2.304l-1.516-.97-1.758-1.758-1.152-1.152s-.364-2.426-.06-2.729c.302-.303-1.153-1.82-1.153-1.82l-1.516-2.303v-1.031l.364-1.334-.364-1.819h1.334l1.637-.546.85-.849.363-1.152-2.425-.97-1.395-1.152-2.183-1.334-2.547-1.334-1.94-1.637-2.97-1.637-2.184-1.94-2.304-.85-1.637-.424-2.607-2.667-1.334-1.334-.85-2.365-1.03-1.516h-1.334l-2.425-1.577-.546-1.394-2.183-.425-1.212-1.212-.607-1.395-1.152-.546-2.243-.667zm83.25 5.821l-.848.061v3.517h1.212l-.363-1.516V230.925zm-104.654 5.457l-1.637.364-.85.97v2.547l1.517-.606.788.788.849-.849.364-1.758-1.031-1.456zm103.988 7.762l-1.152 1.152-.364 1.516.606 1.394-.424 2.244 1.152.242.606-1.394-.364-1.94.243-1.638-.303-1.576zm-2.426 11.702l-.424.425.364 1.515.727-1.03-.667-.91zm-2.425 4.366l-.425 2.304.546.546-.485 1.697.182 2.608 1.03.424.365-1.395-.546-2.789.97-.97-.182-2-1.455-.425zm-.849 12.915l-1.758.242.363 1.82.182 1.758.728.242v-1.394l.546-1.152-.06-1.516zm4.244 1.334v.788l1.153.606v-1.334l-1.153-.06z"/>
        <path fill="#74D8FF" d="M133.547 126.816l.242-1.88 3.093-3.092h5.153l1.638-2.85v-5.457l3.213-1.637 4.245-2.122 2.91 1.091h1.698l1.394 1.395 1.759-1.213-.425 2.123 1.698-.182 2.425.12v1.638l.486 1.819-1.092-.728-1.152-1.152-1.091 1.092.485 1.94v1.94l1.698.91 1.333 1.334v2.122l1.456.728v2.364l1.697 1.698.789 2.85v2.91l-.485 2.547.606 1.395.06 3.092 1.759 1.758-.121 2.244-.425 3.638-1.758 3.092-2.668 2.668h-2.85l-3.153.607-2.728-1.031-2.971-1.698-1.88-1.88v-2.728l-1.94-1.94-.91-2.123-.728-2-1.333-2.244-.728-3.76-1.395-.606.485-2.304 1.152-1.152-1.394-1.395-.667 1.759-.97.97.424 2.243.06 2.547-1.09 1.092 1.455 1.455-.425 2.243-1.394 3.153-2.486.728-1.94 1.94-.789 3.578-1.88 1.88 1.516 4.729-1.455 2.546 2.062 2.062 2.243 2.243 2.547-1.819.485-2.546-1.334-1.334.182-2.244v-1.697l1.697-1.82h1.698l.607 4.548.545 2.971 1.759 1.759 1.091 2.304 2.91.849.85-.85-.728-1.697 1.698-1.395.12-3.517 3.154.486 2.91-1.092 2.426 1.334 2.728-.849h1.88l1.152 1.152 1.698 2.608-1.395 1.394v2.244l1.273-1.577 1.759-1.758 2.425-.485 2.001-2.91v-2.547l.788-1.698 2.608-1.334v-1.637l2.546-1.516v-2.547l-.424-2.425h1.698l.545 1.273 2.304 2.304 1.698 2.608v3.516l-.606 1.82-.91.909-1.516-1.516-2.122-.485-3.213 1.091v2.608l.788 2.425v2.001l2.304.606 2.243 1.031 2.547-1.213v-1.819l2.607-.606 2.547 1.213-.424-1.637 3.94.727 2.123-.424 3.82.485h2.243l1.092 2h1.03v-1.818l3.214-1.031h1.698l.728 2.607h-1.94l-.607 1.82-1.516.484 2.304 2.123h1.637l3.032-1.334 2.91.545 3.153 3.153 1.092-1.091h2.122l2.668-.849 1.091 1.091-.303 1.395-1.637 1.091v1.698l1.94 1.637.122-1.88.849-.848 2 .485V173.2l1.94-.303.425-2.425-.303-2.91 1.82-.91 1.576-.485 1.88 1.88.788-.789 2.061 2.547 2.365 2.365 1.94 1.94.485.97-.849 1.213-.97.97-.606.606.97.91.182.727.727.243v3.456h-.97l-.485 1.092-.788.424-.303 1.88 2 1.03v1.334l-1.879.728 1.577 1.577-2.426 1.212-1.819 1.82h-1.94l-.728 2.243h-3.456l-3.213.727-3.214 1.82v2.243l-2.607-.121-1.94.303-1.092 1.212-1.88.97-1.88 1.88-1.758.243v-1.577l-1.273-.485-1.152 1.577-2.062 2.061-.91 1.759.365 2.182-2.426 1.516-.242 1.82-2.062 1.273-1.334 2.546.364 1.759-.849 1.576v1.334l-2.486 2.486-.364 1.759-.97.97-.546 1.455-3.516-.546-2.547-.97-2.304-1.213-2.365-1.576h-1.091l-.607 1.273-1.03.364-.728-.728-1.03-.363-1.032 1.03-1.819-.667-1.576.85-1.455-1.456-2.183-.97-1.274.485-1.091-1.273.243-1.274-.546-.849-1.273-.485-.97.97-.728-.727-.728.728-2.061-1.152-.97 1.88 1.03 1.03v1.213l-1.516.606h-1.637l-.91.91-1.515.181-.485-1.091-.85-.849-1.576 1.516-1.152-1.152-1.88-.91-1.758.425-.727 2.061-1.152 1.395-.728-.728.606-1.394-.424-1.577v-1.516l-1.091-1.091v-1.516l1.333-1.334v-1.334l1.94-.424v-1.94l1.213-1.213-.181-1.516-.91-.485.364-1.092-.97-.97-.364-.363-.546-.91-.727-.243-1.092.91-2.243 2.243-1.395 1.395-1.94-.849-1.092.97 2.244 2.304-1.395.728v1.88l-.667.667-2.364-2.062-1.213 1.94-2.244-.545-.91.91-1.394-2.002-2.061-1.152-1.698-.788-.728-1.94-2-2.001-2.608-.485-1.334-2.85-2.061.97-2.244-.97-2.486.606-2.243.97-2.365-2.364v-4.003l-1.88-1.879-.97.97-2.547-1.758-1.09-1.092-1.88.182-1.274.243V198l.546-1.698-1.455-.485-1.638.303-2.061-.97-1.698-.667-1.394-.667-.85-.849-.242.85h-1.334l-.97-1.153h-1.455l-.364-1.455-.788-.788-1.092-.546h-1.334l-1.091 1.091h-1.698l-.849.85-1.394-.183-1.152-1.152h-2.183l-1.152-.727-1.516.12-.91-.909h-1.758l-.91-.91-.606-1.333-1.576 1.334-.122 1.273-.91.91-.181 2.122-.546 1.213-.606 1.091H67.94l-.606 1.698L66 194.666l-1.698.182v-3.456l-1.698-1.637-1.94-.485.607-1.516.485-1.637-1.395-1.395-.91-2 .304-1.396 1.94-1.94 1.091-2-.485-1.82 1.637-.424 2.426-1.516v-2.244l1.03-1.212 2.547-.121 1.092-1.334.12-1.516 2.123-.789 1.698-2.304 2.304.122 2-1.213 2.73.606.424-1.516.91-.91 1.697.79 1.395 1.515 2.243.728.788 1.819.789 2 1.212-1.212-.181-2.91-1.82-1.638v-3.456l1.638-.424.485-.485-2.244-.91-1.334-1.516h9.277l13.4-.121 4.245-1.516v-2.607l.728-6.67h2.85l2.425-1.94v-2.607l1.819-.728v-3.456l1.637-.122 3.517-2.85 1.697.789 3.942-6.852zm6.124 24.982l-.364.545.667.85.849-.85-1.152-.545zm85.494 1.273h-1.03l-1.092-1.637-.667.364-1.94-1.82-1.456-1.576.546-1.637 1.455-.485.546-.91-1.03-.849.12-2.182-.666-.182-.667-1.637-1.395-.122-1.091-1.576.363-2.001 1.456-2.001 1.758.182.546.667.667.303.303-1.213 2.122-.667 1.637-1.758-1.091-1.213 1.455-.91 1.637.668.485-1.395v-1.394h2.122l1.031 1.03 1.031-1.03.243-.97 2.304-.486-.789-.788-2-.667v-.728l2.304-.666 2.364-.667 1.213-1.213h1.576v-1.092l2.183-.12-1.212-1.214 1.94-.12.728.727-.122-1.82.91-.909-1.031-1.212.667-1.031 1.091 1.091h1.395v-1.394l2 .727 1.032-1.091 1.03-1.213h1.274l2.183-1.03 1.576.545h2.304l1.516-1.516 1.758.121.85 1.213h1.94l.91.91 1.636-.485h2.304l1.516-1.516 1.759-.97 2.364-.91h2.183l1.274 2.001v2.183l-1.94 1.758-1.76 1.637-2.303.182-2.729 1.274-2.486-.91-1.212 1.213-2.85-.121h-3.638l-1.395 1.455h-2.85l-2.122 1.212.667 1.456-1.455.545-1.759-.182h-1.576l-.182 1.031-1.637-.485v1.637l-1.637 1.213-1.395 1.03v-1.212l-1.091 1.03.303 1.82h-1.092l-.788-.788v2.243l-.788-.788-1.03 1.03-.85.85h-1.212l-.91 1.212-1.213 2.001h-1.94l-1.576 1.273v1.759l-1.577.667-.546 1.819-1.273 1.273v2.304l-.667 1.637.849 2.365-.728 2.365 1.031 1.576.485 1.638-.545.545-1.577.728v-1.213l-1.334-.788zm58.391-90.103l-.728.243.607.849v.727h1.091v-1.455l-.97-.364zm-.182 6.428l-.546.848-1.94.364-1.273.667.97.485-.485 1.092.849.242h1.697l1.334-1.334.97-.97-.363-1.455-1.213.06zM277.068 68l-.424.424.788.789 1.455-.546v-1.213h-.849l-.97.546zm-1.091 2.425l-1.092-1.273-.849.849-.606 1.213v1.515l1.273.243.304.91 1.576-.364 1.03-1.031.728-.728.425-1.273h-1.152l-1.637-.06zm-4.548 5.275l-.485.486v.97h1.03l.365-1.213-.91-.243zm-2.122-3.88l-.546-.546h-1.698v1.152l-.91.91.547.545 1.819-.363.667.667 1.576-.364.485-1.092 1.152.364-.606-1.334-.97-1.03-1.516 1.09zm8.428-12.673l-.485.91.788.788.728-.728-1.03-.97zm-1.637 2.123h-1.213v1.394l1.274 1.273v1.092l1.152-.546-.667-1.455-.546-1.758zm-7.58 3.94h-1.09l-.243.243.849.85.485-1.092zm.91 1.76l-.727.727.727.788.85-.06-.85-1.456zm.667-3.336v.97h1.092l-.243-1.152-.849.182zm1.455 2.426v.849h.85l-.668-.667-.182-.182zm.91 2.061l.364.364.667-.667-1.031.303zm1.03-4.062v1.091l.91.06V64.06h-.91zm-1.333-2.123l.545.97.486-.484-.486-.486h-.545zm-9.823 6.367l-.546.546.97.97 1.092.06v-1.818l-.728-.97-.788 1.212zm2.547-1.213l.363 1.092h.728v-.91l-1.091-.182zm-4.245-6.063l-.727.788v.85l-.85.848-1.576-1.091-1.273.667V64l-1.577-1.153-1.212.485.364 1.82 1.152-.365V66l1.212.303 1.092-1.091 1.576-.667 1.273.364h1.88l1.334-1.334-1.273-1.274.849-.849-1.456-.848-.788.424zm-4.365-1.88h-1.698l-.97-.97-.667 1.334.849.849.363 1.03 1.94-.666.668.667 1.273-.546.546.546V60.24l-.85-.85h-.788l-.666-.242zm1.515 8.004h-.667l.243.97 1.334.06-.91-1.03zm.243 2.001l-.667.667.546.546 1.273.303-.849-.849-.303-.667zm5.518-9.762v.97h.727l.728-.728-1.455-.242zM23.132 156.345l1.576.364 1.334-.364.485-.97 1.213.182 1.152 1.152.06 1.576.91.304.182 1.212 1.455.243.303-1.152-.788-.788.667-.667.424.424 1.395 1.152v1.758l-.182 1.516.788 1.334.789.546.303 1.94-.728 1.456-3.395 1.697-5.094-6.063-2.85-6.852zm208.46 2.183l-1.455.728-1.091.363.303 2.365.182 1.273 1.03.304.364 1.94 1.94.182.668-1.577-.91-1.576.121-1.759-1.152-2.243zm-32.5-8.004l-2 .546-1.213 1.576-.91 1.213.667 1.759 1.455.545 1.395.546 1.273-.91 1.577.304.849-1.94-1.274-1.638-.12-1.394-1.699-.607z"/>
        <path fill="#9775B3" d="M67.395 324.302l.12-1.758-.484-1.273-1.092-.364-.667-1.031-1.394-.97v-2.304l-.85-1.274-.302-1.576-1.092-1.092v-1.212l-.788-1.031-1.03-1.03-.789-1.456.728-1.334-.667-1.819-.97-.97-.304-1.273-.97-1.092-.182-1.455-1.152-.485-1.819.303-.788-.788-.424-1.334-.85.303H50.6l-.425-1.334-1.152-.606-.727-.789h-1.152l-.85.91-1.454.182-.546-.85-.788-.302-.728.849v1.212l-.849 1.213.788.667.607 1.213-.85 1.334.971.97-1.698 1.273-1.03.303.363 1.455-.485 1.031-1.516 1.94h-2l-.85-1.273-.545-1.212h-.97l-1.031 1.03-1.455.243-1.213 1.213.546 2 1.516 2.365.667 2.365 2.243 1.516 1.516.727.91 2.365 1.697 1.395-.424 2 1.455 1.274.424 3.214 1.395 1.455 2.243.303 1.274 1.273.364 1.031 1.697.182.485 1.82 1.516 1.636-.606 1.759-.91 1.515 1.456 1.82.788 2.122v1.334l1.637 1.091.182 2.425 1.152 3.335.303 1.94 2.244.546 2.364-.788 1.577.728 2.425-1.092-.182-3.213.425-2.608-.607-3.456v-2.85l2.244-3.638 1.03-.91v-.727l1.153-1.152.97-3.699-.607-1.94-1.03-1.03v-1.638z"/>
        <g fill="#D4899E">
            <path d="M11.01 262.82l-.545-.486-.667-.545-.485-.364-.486-.303-1.88-.061-1.09.121-.91-.545-.91-.304-.545-.303-.789.728.122 1.03.788.425.91.303.545 1.455.121 1.152-.303.91.121 1.273-.363 1.152-1.274.667-.667.728-.97.121-.727 1.213.424 1.455.364 1.092 1.455.97 1.577-.182.91-.485 1.394-.667 1.03.303 1.334.849.364.727.364.485.667.607 1.577.546h3.395l.728 1.515.424 1.092 2.122 1.394 2.062.364.727-1.212 1.698.242-1.637-1.637-.182-.667-.303-.485-.303-.364-1.82-.303-2-1.092-1.455-2.243.91-1.334.424-1.94-.243-1.759-.242-.242-.546-.425-.121-.303.424-1.94-1.03-1.03-.061-1.577-1.152-.182-.182.788-.97-.06-1.274.181zM31.08 308.72l-1.091-.182-.788-1.031-1.031-1.395-1.334.182-.788-2.425.303-4.67-.425-3.455-.788-1.698-1.03-1.516.181-3.032-1.212-1.091-.789-1.637.607-1.82-.485-2 1.091-1.091 1.213-.182 1.637 2 1.516.486.727-1.516 1.698-.728 2.304-.121h1.213l1.516.485.303-2.547-.788-1.516.424-1.333 1.213.181 1.091.789 1.213 1.091.91-.91 1.394.607 2.304.303 1.698.728.424-1.82-1.212-.909-1.698-.424-1.092-1.092-1.212-.424 1.516-1.637 2.243-1.031 1.94.788 1.698-.727 1.637 1.697 2.426 2.608L54 274.46l1.516-.91-.425-2.243 1.395-1.394 1.395.181-.122-1.637 3.76-.485.727-1.697.789-1.031.788.788v1.273h1.758l.728.97h1.394l.91-.91h2.607l2.365-2.364.728-2.425h2.91l1.395-1.274 1.455.304.364 1.152 1.576.849h2.062l-.122 1.758.607 2.365 2.243.303 1.334.728v1.212l2.062-.06 2.364 2.304.304 2.789-1.82 1.758 1.335 1.274.727-.728 1.455.546.425 2.061.97.97h1.455l.303 1.516 1.213 1.213.06 2-.727 1.638-1.334.97h-1.94l-1.577 1.577-1.334 1.334v1.819l-1.697.727-1.82-.121-1.333 1.334-1.637 1.091.666 1.94 1.456 1.456-.607 2.607-1.334 1.334 1.334.788 1.94 1.82 1.213 1.212-.485 2.607.546 3.456v2.79l-1.091 1.091-1.031-1.091-1.516-.182.182 1.819.849 1.758 1.273 1.274-1.03 1.03-1.699.182H82.862s-1.213.121-2.183.121c-.97 0-.727-.727-.727-.727l-1.516-.425-.728-.727-1.819-.303v1.394l-1.395.607-1.697 2h-1.94l-2.123.607-1.213-.303.122-1.759-.485-1.273-1.092-.424-.667-1.031-1.394-.97v-2.365l-.85-1.273-.242-1.516-1.152-1.152v-1.213l-.849-1.092-.97-.97-.727-1.455.727-1.394-.667-1.82-.97-.97-.303-1.212-.97-1.152-.182-1.456-1.152-.485-1.82.303-.787-.788-.486-1.334-.848.303h-1.031l-.425-1.333-1.152-.546-.788-.85-1.152.062-.849.848-1.455.182-.485-.788-.85-.242-.727.848v1.213l-.849 1.213.789.606.606 1.213-.788 1.334.97 1.03-1.698 1.274-1.03.303.424 1.455-.485 1.092-1.577 1.94h-1.94l-.849-1.273-.606-1.213h-.97l-1.031 1.03-1.455.243-1.274 1.456z"/>
        </g>
    </g>
</svg>
