<svg xmlns="http://www.w3.org/2000/svg" width="97" height="98" viewBox="0 0 97 98">
    <g fill="none" fill-rule="evenodd" transform="translate(0 -1)">
        <circle cx="48" cy="54" r="40" fill="#00A650" opacity=".613"/>
        <path fill="#000" d="M48.52 1.101a1.515 1.515 0 0 0-.148 0 1.515 1.515 0 0 0-.645.2L.757 28.485C.289 28.756 0 29.257 0 29.8v6.15c0 .836.678 1.515 1.515 1.515h7.576v4.545c0 .837.678 1.515 1.515 1.515h1.515v33.334h-1.515c-.837 0-1.515.678-1.515 1.515v4.545H7.576c-.837 0-1.515.679-1.515 1.515v4.546H1.515c-.837 0-1.515.678-1.515 1.515v6.06c0 .837.678 1.516 1.515 1.516h93.94c.836 0 1.515-.679 1.515-1.515v-6.061c0-.837-.679-1.515-1.515-1.515h-4.546v-4.546c0-.836-.678-1.515-1.515-1.515h-1.515v-4.545c0-.837-.679-1.515-1.515-1.515h-1.516V43.524h1.516c.836 0 1.515-.678 1.515-1.515v-4.545h7.576c.836 0 1.515-.679 1.515-1.516V29.8c0-.542-.289-1.043-.758-1.314L49.242 1.301a1.515 1.515 0 0 0-.722-.206v.006zm-.035 3.267L89.974 28.38H72.893a1.515 1.515 0 1 0 0 3.03h21.046v3.03H3.03v-3.764l3.966-2.296h14.05a1.515 1.515 0 1 0 0-3.03h-8.812l36.25-20.982zm0 7.345c-5.003 0-9.091 4.088-9.091 9.091 0 5.003 4.088 9.091 9.09 9.091 5.004 0 9.092-4.088 9.092-9.09 0-5.004-4.088-9.092-9.091-9.092zm0 3.03a6.038 6.038 0 0 1 6.06 6.061 6.038 6.038 0 0 1-6.06 6.06 6.038 6.038 0 0 1-6.06-6.06 6.038 6.038 0 0 1 6.06-6.06zm0 3.025a3.03 3.03 0 1 0 0 6.06 3.03 3.03 0 0 0 0-6.06zM27.267 25.35a1.517 1.517 0 0 0 .154 3.03h3.184a1.515 1.515 0 1 0 0-3.03H27.42a1.515 1.515 0 0 0-.154 0zm35.914 3.03a1.517 1.517 0 0 0 .154 3.03h3.184a1.515 1.515 0 1 0 0-3.03h-3.184a1.515 1.515 0 0 0-.154 0zm-51.06 9.09h15.152v3.031H12.12v-3.03zm18.182 0h7.576v4.546c0 .837.678 1.515 1.515 1.516h1.515v33.333h-1.515c-.837 0-1.515.678-1.515 1.515v4.545h-7.576V78.38c0-.837-.678-1.515-1.515-1.515h-1.515V43.532h1.515c.837 0 1.515-.679 1.515-1.516v-4.545zm10.606 0h15.152v3.031H40.909v-3.03zm18.182 0h7.576v4.546c0 .837.678 1.515 1.515 1.516h1.515v33.333h-1.515c-.837 0-1.515.678-1.515 1.515v4.545H59.09V78.38c0-.837-.679-1.515-1.515-1.515H56.06V43.532h1.515c.836 0 1.515-.679 1.515-1.516v-4.545zm10.606 0h15.151v3.031H69.697v-3.03zM15.15 43.533h9.091v33.333h-9.09V43.532zm28.788 0h9.091v33.333h-9.09V43.532zm28.788 0h9.091v33.333h-9.09V43.532zM12.121 79.895h15.152v3.03H12.12v-3.03zm28.788 0h15.152v3.03H40.909v-3.03zm28.788 0h15.151v3.03H69.697v-3.03zM9.09 85.955h78.788v3.031H9.09v-3.03zm-6.06 6.061h90.908v3.03H3.03v-3.03z"/>
    </g>
</svg>
