<?xml version="1.0" encoding="utf-8"?>
<!-- Generator: Adobe Illustrator 21.1.0, SVG Export Plug-In . SVG Version: 6.00 Build 0)  -->
<svg version="1.1" id="Слой_1" xmlns="http://www.w3.org/2000/svg" xmlns:xlink="http://www.w3.org/1999/xlink" x="0px" y="0px"
	 width="160px" height="160px" viewBox="0 0 160 160" style="enable-background:new 0 0 160 160;" xml:space="preserve">
<g>
	<defs>
		<ellipse id="SVGID_1_" cx="80" cy="80" rx="79.7" ry="79.6"/>
	</defs>
	<clipPath id="SVGID_2_">
		<use xlink:href="#SVGID_1_"  style="overflow:visible;"/>
	</clipPath>
	<g style="clip-path:url(#SVGID_2_);">
		<defs>
			<rect id="SVGID_3_" x="-298.7" y="-8480.4" width="1440" height="12581"/>
		</defs>
		<clipPath id="SVGID_4_">
			<use xlink:href="#SVGID_3_"  style="overflow:visible;"/>
		</clipPath>
		<g style="clip-path:url(#SVGID_4_);enable-background:new    ;">
			<g>
				<defs>
					<rect id="SVGID_5_" x="-92.7" y="-1.4" width="345" height="162"/>
				</defs>
				<clipPath id="SVGID_6_">
					<use xlink:href="#SVGID_5_"  style="overflow:visible;"/>
				</clipPath>
				<g style="clip-path:url(#SVGID_6_);">
					<defs>
						<rect id="SVGID_7_" x="-91.1" y="-0.2" width="342.2" height="159.4"/>
					</defs>
					<clipPath id="SVGID_8_">
						<use xlink:href="#SVGID_7_"  style="overflow:visible;"/>
					</clipPath>
					<g style="clip-path:url(#SVGID_8_);">
						<defs>
							<rect id="SVGID_9_" x="0.3" y="-0.4" width="160" height="160"/>
						</defs>
						<clipPath id="SVGID_10_">
							<use xlink:href="#SVGID_9_"  style="overflow:visible;"/>
						</clipPath>
						<rect x="-96.1" y="-5.2" style="clip-path:url(#SVGID_10_);fill:#D8232A;" width="352.2" height="169.4"/>
					</g>
				</g>
				<g style="clip-path:url(#SVGID_6_);">
					<defs>
						<rect id="SVGID_11_" x="0.3" y="-0.4" width="160" height="160"/>
					</defs>
					<clipPath id="SVGID_12_">
						<use xlink:href="#SVGID_11_"  style="overflow:visible;"/>
					</clipPath>
					
						<rect x="-91.1" y="-0.2" style="clip-path:url(#SVGID_12_);fill:none;stroke:#FFFFFE;stroke-width:0.216;stroke-miterlimit:10;" width="342.2" height="159.4"/>
				</g>
				<g style="clip-path:url(#SVGID_6_);">
					<defs>
						<path id="SVGID_13_" d="M97.4,75.7c-0.2,5.2,0.2,10.4-0.1,15.5c-0.3,1.7-0.2,3.5-1,5c-2.1,4.5-6.9,7-11.7,7.3
							c-0.1,4.1,0,8.1-0.1,12.2c1.4,0,2.8,0,4.1-0.2c6.3-0.9,12.6-3.3,17.1-8c4.1-4.2,5.9-10.2,5.8-16l0-11.2l-0.1-4.5
							C106.8,76,102.1,75.8,97.4,75.7 M48.6,75.9c0.2,7.9-0.9,16,0.9,23.8c1.6,5.8,6.2,10.2,11.4,12.8c4.4,2.3,9.3,3.4,14.2,3.5
							c0.2-4.1,0-8.2,0.1-12.3c-2.8-0.8-5.8-1-8.1-2.8c-2.9-2.7-4.3-6.6-4.5-10.5c0-1.2-0.3-2.3-0.1-3.5c0.1-3.7,0.4-7.3,0.1-11
							C57.9,75.8,53.2,75.7,48.6,75.9 M48.5,43c-0.1,9.6-0.1,19.1,0,28.7c4.7,0,9.5,0,14.2,0c0-5.5,0-11,0-16.5
							c-0.1-0.4,0.2-0.8,0.6-0.8c3,0,6,0,9,0c0.1,0.2,0.2,0.5,0.1,0.8c0,5.5,0,11,0,16.5c5.1-0.1,10.2-0.1,15.3,0
							c0.1-5.7,0-11.5,0.1-17.2c2.3-0.3,4.7-0.1,7-0.1c0.8,0,1.7-0.1,2.5,0.1c0,5.7,0,11.5,0,17.2c4.7-0.1,9.5,0,14.2,0
							c0.1-9.6,0-19.1,0-28.7C90.5,43,69.5,43,48.5,43"/>
					</defs>
					<clipPath id="SVGID_14_">
						<use xlink:href="#SVGID_13_"  style="overflow:visible;"/>
					</clipPath>
					<g style="clip-path:url(#SVGID_14_);">
						<defs>
							<rect id="SVGID_15_" x="0.3" y="-0.4" width="160" height="160"/>
						</defs>
						<clipPath id="SVGID_16_">
							<use xlink:href="#SVGID_15_"  style="overflow:visible;"/>
						</clipPath>
						<rect x="43.4" y="38" style="clip-path:url(#SVGID_16_);fill:#FFFFFE;" width="73.1" height="82.9"/>
					</g>
				</g>
			</g>
		</g>
	</g>
</g>
</svg>
