<?xml version="1.0" encoding="utf-8"?>
<!-- Generator: Adobe Illustrator 21.1.0, SVG Export Plug-In . SVG Version: 6.00 Build 0)  -->
<svg version="1.1" id="Слой_1" xmlns="http://www.w3.org/2000/svg" xmlns:xlink="http://www.w3.org/1999/xlink" x="0px" y="0px"
	 width="160px" height="160px" viewBox="0 0 160 160" style="enable-background:new 0 0 160 160;" xml:space="preserve">
<g>
	<defs>
		<ellipse id="SVGID_1_" cx="80" cy="80" rx="79.7" ry="79.6"/>
	</defs>
	<clipPath id="SVGID_2_">
		<use xlink:href="#SVGID_1_"  style="overflow:visible;"/>
	</clipPath>
	<g style="clip-path:url(#SVGID_2_);">
		<defs>
			<rect id="SVGID_3_" x="-298.7" y="-8155.9" width="1440" height="12581"/>
		</defs>
		<clipPath id="SVGID_4_">
			<use xlink:href="#SVGID_3_"  style="overflow:visible;"/>
		</clipPath>
		<g style="clip-path:url(#SVGID_4_);enable-background:new    ;">
			<g>
				<defs>
					<rect id="SVGID_5_" x="-92.7" y="-0.9" width="345" height="162"/>
				</defs>
				<clipPath id="SVGID_6_">
					<use xlink:href="#SVGID_5_"  style="overflow:visible;"/>
				</clipPath>
				<g style="clip-path:url(#SVGID_6_);">
					<defs>
						<rect id="SVGID_7_" x="-91.1" y="0.3" width="342.2" height="159.4"/>
					</defs>
					<clipPath id="SVGID_8_">
						<use xlink:href="#SVGID_7_"  style="overflow:visible;"/>
					</clipPath>
					<g style="clip-path:url(#SVGID_8_);">
						<defs>
							<rect id="SVGID_9_" x="0.3" y="0.1" width="160" height="160"/>
						</defs>
						<clipPath id="SVGID_10_">
							<use xlink:href="#SVGID_9_"  style="overflow:visible;"/>
						</clipPath>
						<rect x="-96.1" y="-4.7" style="clip-path:url(#SVGID_10_);fill:#922A5B;" width="352.2" height="169.4"/>
					</g>
				</g>
				<g style="clip-path:url(#SVGID_6_);">
					<defs>
						<rect id="SVGID_11_" x="0.3" y="0.1" width="160" height="160"/>
					</defs>
					<clipPath id="SVGID_12_">
						<use xlink:href="#SVGID_11_"  style="overflow:visible;"/>
					</clipPath>
					
						<rect x="-91.1" y="0.3" style="clip-path:url(#SVGID_12_);fill:none;stroke:#FFFFFE;stroke-width:0.216;stroke-miterlimit:10;" width="342.2" height="159.4"/>
				</g>
				<g style="clip-path:url(#SVGID_6_);">
					<defs>
						<path id="SVGID_13_" d="M79.7,30.7c7.1,0,13.4,7.7,17.4,19.7c12.4-2.5,22.4-0.9,25.9,5.3c4.8,8.4-3.8,22.8-19.9,35.1l0.9-8.7
							c10.7-9,16.4-18.1,13.5-23.3c-2.3-4-9.4-4.8-18.7-2.7c1.7,7.1,2.7,15.2,2.7,23.8c0,7.6-0.8,14.8-2.1,21.2l-6.2-0.1
							c1.3-6.2,2-13.5,2-21.1c0-23.7-6.9-42.9-15.3-42.9c-5.9,0-11,9.3-13.5,22.9L59,65.5C61.7,45.4,69.9,30.7,79.7,30.7 M80,71
							c-5,0-9.1,4.1-9.1,9.1c0,5,4.1,9.1,9.1,9.1c5,0,9.1-4.1,9.1-9.1C89.1,75.1,85,71,80,71 M37.1,55.7c-3.5,6.1,0,15.2,8.2,24.4
							c-8.2,9.2-11.6,18.3-8.2,24.4c4.8,8.5,21.7,8.4,40.7,0.7l-9.3-3.2c-12.8,4.2-23,4.3-25.8-0.7c-4.2-7.3,9.2-22.8,29.8-34.5
							c6-3.4,12.1-6.2,17.6-8.1l-0.5-6.3c-6.5,2-13.4,5-20.3,8.9c-7.7,4.4-14.5,9.4-19.9,14.6c-6.2-6.8-9-13-6.8-16.9
							c2-3.5,7.8-4.6,15.5-3.3l3-5.5C49.5,48.1,40.4,49.8,37.1,55.7 M56.1,82.1l-5.7,3.1c5.2,4.8,11.6,9.5,18.9,13.7
							c7.5,4.2,15,7.4,21.9,9.4c-2.8,9-6.9,14.6-11.5,14.6c-4.2,0-8.1-4.8-10.9-12.6l-5.3,2.7c4,10,9.7,16.3,16.1,16.3
							c7.1,0,13.3-7.7,17.3-19.6c12.5,2.5,22.4,0.9,25.9-5.3c3.2-5.6,0.4-13.9-6.5-22.4l-5.1,3.1c5.7,6.4,8.2,12.3,6,16.1
							c-4.2,7.3-24.3,3.8-45-7.9C66.2,89.9,60.7,86,56.1,82.1"/>
					</defs>
					<clipPath id="SVGID_14_">
						<use xlink:href="#SVGID_13_"  style="overflow:visible;"/>
					</clipPath>
					<g style="clip-path:url(#SVGID_14_);">
						<defs>
							<rect id="SVGID_15_" x="0.3" y="0.1" width="160" height="160"/>
						</defs>
						<clipPath id="SVGID_16_">
							<use xlink:href="#SVGID_15_"  style="overflow:visible;"/>
						</clipPath>
						<rect x="30.7" y="25.7" style="clip-path:url(#SVGID_16_);fill:#FFFFFE;" width="98.5" height="108.6"/>
					</g>
				</g>
			</g>
		</g>
	</g>
</g>
</svg>
